INDEX VERSION 1.130+/home/user/JDBC/.metadata/.plugins/org.eclipse.jdt.core
3869483408.index
1193110686.index
19647824.index
1592080129.index
3989109966.index
3338552108.index
2169718750.index
3972396961.index
722726688.index
2610829131.index
3714196918.index
3353451685.index
3525508296.index
3330088418.index
1583884628.index
2834342573.index
1480226211.index
3467457219.index
626335570.index
977663379.index
1479565596.index
